<svg width="41" height="41" viewBox="0 0 41 41" fill="none" xmlns="http://www.w3.org/2000/svg">
<path fill-rule="evenodd" clip-rule="evenodd" d="M20.5973 0.997925C31.8653 0.997925 40.9999 9.95225 40.9999 20.9979C40.9999 32.0432 31.8653 40.9979 20.5973 40.9979C9.32922 40.9979 0.194641 32.0432 0.194641 20.9979C0.194641 9.95225 9.32922 0.997925 20.5973 0.997925Z" fill="#18CFAB"/>
</svg>
